SPI_FLASH_CONTROLLER/build/spi_flash.vcd
$date
	Mon Oct 03 13:37:22 2022
$end
$version
	Icarus Verilog
$end
$timescale
	100ps
$end
$scope module tb_spi_flash $end
$var wire 1 ! cmd_fire $end
$var wire 1 " si $end
$var wire 1 # sio3 $end
$var wire 1 $ so $end
$var wire 1 % wp $end
$var wire 1 & sclk $end
$var wire 1 ' cs_n $end
$var wire 1 ( cmd_rdy $end
$var parameter 32 ) ADDR_WD $end
$var parameter 32 * CMD_WD $end
$var parameter 32 + DATA_WD $end
$var parameter 32 , TOL_WD $end
$var reg 1 - clk $end
$var reg 40 . cmd_in [39:0] $end
$var reg 1 / cmd_vld $end
$var reg 1 0 rst_n $end
$scope module MX25L $end
$var event 1 1 WRSR_Event $end
$var event 1 2 WRSPB_Event $end
$var event 1 3 WRSCUR_Event $end
$var event 1 4 WRDPB_Event $end
$var event 1 5 WPSEL_Event $end
$var event 1 6 Susp_Event $end
$var event 1 7 SE_4K_Event $end
$var event 1 8 Resume_Event $end
$var event 1 9 RST_Event $end
$var event 1 : RST_EN_Event $end
$var event 1 ; PP_Event $end
$var event 1 < GBULK_Event $end
$var event 1 = GBLK_Event $end
$var event 1 > ESSPB_Event $end
$var event 1 ? CE_Event $end
$var event 1 @ BE_Event $end
$var event 1 A BE32K_Event $end
$var wire 1 B Dis_CE $end
$var wire 1 C Dis_WRSR $end
$var wire 1 D EPSUSP $end
$var wire 1 E Ers_Mode $end
$var wire 1 F FastRD_2XIO_Chk_W $end
$var wire 1 G FastRD_4XIO_Chk_W $end
$var wire 1 H HPM_RD $end
$var wire 1 I Norm_Array_Mode $end
$var wire 1 J PP_4XIO_Chk_W $end
$var wire 1 K Pgm_Mode $end
$var wire 1 L RESETB_INT $end
$var wire 1 M Read_1XIO_Chk_W $end
$var wire 1 N Read_2XIO_Chk_W $end
$var wire 1 O Read_2XIO_Chk_W0 $end
$var wire 1 P Read_4XIO_Chk_W $end
$var wire 1 Q Read_4XIO_Chk_W0 $end
$var wire 1 R Read_SHSL_W $end
$var wire 126 S SEC_Pro_Reg [126:1] $end
$var wire 16 T SEC_Pro_Reg_BOT [15:0] $end
$var wire 16 U SEC_Pro_Reg_TOP [15:0] $end
$var wire 1 " SI $end
$var wire 1 # SIO3 $end
$var wire 1 V SIO3_IN_EN_W $end
$var wire 1 W SI_IN_EN_W $end
$var wire 1 $ SO $end
$var wire 1 X SO_IN_EN_W $end
$var wire 1 % WP $end
$var wire 1 Y WP_EN $end
$var wire 1 Z WP_IN_EN_W $end
$var wire 1 [ tDP_Chk_W $end
$var wire 1 \ tRES1_Chk_W $end
$var wire 1 ] tRES2_Chk_W $end
$var wire 1 ^ Write_SHSL $end
$var wire 1 _ WP_B_INT $end
$var wire 1 ` WPSEL_Mode $end
$var wire 1 a WIP $end
$var wire 1 b WEL $end
$var wire 1 c SRWD $end
$var wire 1 d SIO3_EN $end
$var wire 1 & SCLK $end
$var wire 1 e PSB $end
$var wire 1 f ISCLK $end
$var wire 1 g HOLD_B_INT $end
$var wire 1 h ESB $end
$var wire 1 i CS_INT $end
$var wire 1 ' CS $end
$var parameter 32 j A_MSB $end
$var parameter 32 k A_MSB_OTP $end
$var parameter 32 l A_MSB_SFDP $end
$var parameter 8 m BE $end
$var parameter 8 n BE2 $end
$var parameter 32 o Bank_MSB $end
$var parameter 32 p Bank_NUM $end
$var parameter 32 q Block_MSB $end
$var parameter 32 r Block_NUM $end
$var parameter 32 s Buffer_Num $end
$var parameter 8 t CE1 $end
$var parameter 8 u CE2 $end
$var parameter 32 v Clock $end
$var parameter 8 w DP $end
$var parameter 8 x DREAD $end
$var parameter 8 y ENSO $end
$var parameter 64 z ERS_Count_BE $end
$var parameter 64 { ERS_Count_BE32K $end
$var parameter 64 | ERS_Count_SE $end
$var parameter 8 } ESSPB $end
$var parameter 8 ~ EXSO $end
$var parameter 96 !" Echip_Count $end
$var parameter 8 "" FASTREAD1X $end
$var parameter 8 #" FIOPGM0 $end
$var parameter 8 $" GBLK $end
$var parameter 8 %" GBULK $end
$var parameter 8 &" ID_Device $end
$var parameter 8 '" ID_MXIC $end
$var parameter 32 (" Init_File $end
$var parameter 32 )" Init_File_SFDP $end
$var parameter 32 *" Init_File_Secu $end
$var parameter 8 +" Memory_Density $end
$var parameter 8 ," Memory_Type $end
$var parameter 8 -" NOP $end
$var parameter 8 ." PP $end
$var parameter 8 /" QREAD $end
$var parameter 8 0" RDCR $end
$var parameter 8 1" RDDPB $end
$var parameter 8 2" RDID $end
$var parameter 8 3" RDP $end
$var parameter 8 4" RDSCUR $end
$var parameter 8 5" RDSPB $end
$var parameter 8 6" RDSR $end
$var parameter 8 7" READ1X $end
$var parameter 8 8" READ2X $end
$var parameter 8 9" READ4X $end
$var parameter 8 :" REMS $end
$var parameter 8 ;" RES $end
$var parameter 8 <" RESU $end
$var parameter 8 =" RESU1 $end
$var parameter 8 >" RST $end
$var parameter 8 ?" RSTEN $end
$var parameter 8 @" SBL $end
$var parameter 8 A" SBL1 $end
$var parameter 8 B" SE $end
$var parameter 8 C" SFDP_READ $end
$var parameter 7 D" SFDP_TOP_Add $end
$var parameter 8 E" SUSP $end
$var parameter 8 F" SUSP1 $end
$var parameter 32 G" Sector_MSB $end
$var parameter 10 H" Secur_TOP_Add $end
$var parameter 23 I" TOP_Add $end
$var parameter 8 J" WPSEL $end
$var parameter 8 K" WRDI $end
$var parameter 8 L" WRDPB $end
$var parameter 8 M" WREN $end
$var parameter 8 N" WRSCUR $end
$var parameter 8 O" WRSPB $end
$var parameter 8 P" WRSR $end
$var parameter 32 Q" f4PP $end
$var parameter 32 R" fQSCLK $end
$var parameter 32 S" fQSCLK2 $end
$var parameter 32 T" fQSCLK3 $end
$var parameter 32 U" fRSCLK $end
$var parameter 32 V" fSCLK $end
$var parameter 32 W" fTSCLK $end
$var parameter 32 X" fTSCLK2 $end
$var parameter 32 Y" fTSCLK3 $end
$var real 1 Z" t4PP $end
$var parameter 32 [" tBE $end
$var parameter 32 \" tBE32 $end
$var parameter 32 ]" tBP $end
$var parameter 32 ^" tCE $end
$var real 1 _" tCH $end
$var parameter 32 `" tCHDX $end
$var parameter 32 a" tCHHH $end
$var parameter 32 b" tCHHL $end
$var parameter 32 c" tCHSH $end
$var parameter 32 d" tCHSL $end
$var parameter 32 e" tCH_R $end
$var real 1 f" tCL $end
$var parameter 32 g" tCLQV $end
$var parameter 32 h" tCLQX $end
$var parameter 32 i" tCL_R $end
$var parameter 32 j" tDP $end
$var parameter 32 k" tDVCH $end
$var parameter 32 l" tERS $end
$var parameter 32 m" tERS_CHK $end
$var parameter 32 n" tESL $end
$var parameter 32 o" tHHCH $end
$var parameter 32 p" tHHQX $end
$var parameter 32 q" tHLCH $end
$var parameter 32 r" tHLQZ $end
$var parameter 32 s" tPGM_CHK $end
$var parameter 32 t" tPP $end
$var parameter 32 u" tPRS $end
$var parameter 32 v" tPSL $end
$var real 1 w" tQSCLK $end
$var real 1 x" tQSCLK2 $end
$var real 1 y" tQSCLK3 $end
$var parameter 32 z" tRCE $end
$var parameter 32 {" tRCP $end
$var parameter 32 |" tRCR $end
$var parameter 32 }" tRES1 $end
$var parameter 32 ~" tRES2 $end
$var parameter 32 !# tRSCLK $end
$var real 1 "# tSCLK $end
$var parameter 32 ## tSE $end
$var parameter 32 $# tSHCH $end
$var parameter 32 %# tSHQZ $end
$var parameter 32 &# tSHSL_R $end
$var parameter 32 '# tSHSL_W $end
$var parameter 32 (# tSHWL $end
$var parameter 32 )# tSLCH $end
$var real 1 *# tTSCLK $end
$var real 1 +# tTSCLK2 $end
$var real 1 ,# tTSCLK3 $end
$var parameter 32 -# tVSL $end
$var parameter 32 .# tW $end
$var parameter 32 /# tWHSL $end
$var parameter 32 0# tWPS $end
$var parameter 32 1# tWP_SRAM $end
$var parameter 32 2# tWSR $end
$var reg 23 3# Address [22:0] $end
$var reg 1 4# BE32K_Mode $end
$var reg 1 5# BE64K_Mode $end
$var reg 1 6# BE_Mode $end
$var reg 4 7# Bank [3:0] $end
$var reg 4 8# Bank2 [3:0] $end
$var reg 7 9# Block [6:0] $end
$var reg 8 :# Block2 [7:0] $end
$var reg 1 ;# Byte_PGM_Mode $end
$var reg 1 <# CE_Mode $end
$var reg 8 =# CMD_BUS [7:0] $end
$var reg 8 ># CR [7:0] $end
$var reg 1 ?# Chip_EN $end
$var reg 126 @# DPB_Reg [126:1] $end
$var reg 16 A# DPB_Reg_BOT [15:0] $end
$var reg 16 B# DPB_Reg_TOP [15:0] $end
$var reg 1 C# DP_Mode $end
$var reg 1 D# During_RST_REC $end
$var reg 1 E# During_Susp_Wait $end
$var reg 1 F# EN4XIO_Read_Mode $end
$var reg 1 G# ENQUAD $end
$var reg 1 H# EN_Burst $end
$var reg 1 I# ERS_CLK $end
$var reg 64 J# ERS_Time [63:0] $end
$var reg 1 K# ESSPB_Mode $end
$var reg 1 L# Fast4x_Mode $end
$var reg 1 M# FastRD_1XIO_Mode $end
$var reg 1 N# FastRD_2XIO_Chk $end
$var reg 1 O# FastRD_2XIO_Mode $end
$var reg 1 P# FastRD_4XIO_Chk $end
$var reg 1 Q# FastRD_4XIO_Mode $end
$var reg 1 R# HOLD_OUT_B $end
$var reg 1 S# PGM_CLK $end
$var reg 1 T# PP_1XIO_Mode $end
$var reg 1 U# PP_4XIO_Chk $end
$var reg 1 V# PP_4XIO_Load $end
$var reg 1 W# PP_4XIO_Mode $end
$var reg 1 X# RDCR_Mode $end
$var reg 1 Y# RDDPB_Mode $end
$var reg 1 Z# RDID_Mode $end
$var reg 1 [# RDSCUR_Mode $end
$var reg 1 \# RDSPB_Mode $end
$var reg 1 ]# RDSR_Mode $end
$var reg 1 ^# READ4X_Mode $end
$var reg 1 _# REMS_Mode $end
$var reg 1 `# RES_Mode $end
$var reg 1 a# RST_CMD_EN $end
$var reg 1 b# Read_1XIO_Chk $end
$var reg 1 c# Read_1XIO_Mode $end
$var reg 1 d# Read_2XIO_Chk $end
$var reg 1 e# Read_2XIO_Mode $end
$var reg 1 f# Read_4XIO_Chk $end
$var reg 1 g# Read_4XIO_Mode $end
$var reg 1 h# Read_Mode $end
$var reg 1 i# Read_SHSL $end
$var reg 1 j# Resume_Trig $end
$var reg 1 k# SCLK_EN $end
$var reg 1 l# SE_4K_Mode $end
$var reg 1 m# SFDP_Mode $end
$var reg 1 n# SIO0_Out_Reg $end
$var reg 1 o# SIO0_Reg $end
$var reg 1 p# SIO1_Out_Reg $end
$var reg 1 q# SIO1_Reg $end
$var reg 1 r# SIO2_Out_Reg $end
$var reg 1 s# SIO2_Reg $end
$var reg 1 t# SIO3_IN_EN $end
$var reg 1 u# SIO3_OUT_EN $end
$var reg 1 v# SIO3_Out_Reg $end
$var reg 1 w# SIO3_Reg $end
$var reg 1 x# SI_IN_EN $end
$var reg 1 y# SI_OUT_EN $end
$var reg 24 z# SI_Reg [23:0] $end
$var reg 1 {# SO_IN_EN $end
$var reg 1 |# SO_OUT_EN $end
$var reg 1 }# SPBLB $end
$var reg 126 ~# SPB_Reg [126:1] $end
$var reg 16 !$ SPB_Reg_BOT [15:0] $end
$var reg 16 "$ SPB_Reg_TOP [15:0] $end
$var reg 3 #$ STATE [2:0] $end
$var reg 11 $$ Sector [10:0] $end
$var reg 1 %$ Secur_Mode $end
$var reg 8 &$ Secur_Reg [7:0] $end
$var reg 1 '$ Set_4XIO_Enhance_Mode $end
$var reg 8 ($ Status_Reg [7:0] $end
$var reg 1 )$ Susp_Ready $end
$var reg 1 *$ Susp_Trig $end
$var reg 1 +$ W4Read_Mode $end
$var reg 1 ,$ WP_IN_EN $end
$var reg 1 -$ WP_OUT_EN $end
$var reg 1 .$ WR2Susp $end
$var reg 1 /$ WRDPB_Mode $end
$var reg 1 0$ WRSCUR_Mode $end
$var reg 1 1$ WRSPB_Mode $end
$var reg 1 2$ WRSR2_Mode $end
$var reg 1 3$ WRSR_Mode $end
$var reg 1 4$ WR_WPSEL_Mode $end
$var reg 1 5$ tDP_Chk $end
$var reg 1 6$ tRES1_Chk $end
$var reg 1 7$ tRES2_Chk $end
$var integer 32 8$ AC_Check_File [31:0] $end
$var integer 32 9$ Bit [31:0] $end
$var integer 32 :$ Bit_Tmp [31:0] $end
$var integer 32 ;$ Burst_Length [31:0] $end
$var integer 32 <$ End_Add [31:0] $end
$var integer 32 =$ Start_Add [31:0] $end
$var real 1 >$ T_CS_N $end
$var real 1 ?$ T_CS_P $end
$var real 1 @$ T_HOLD_N $end
$var real 1 A$ T_HOLD_P $end
$var real 1 B$ T_SCLK_N $end
$var real 1 C$ T_SCLK_P $end
$var real 1 D$ T_SI $end
$var real 1 E$ T_SIO3 $end
$var real 1 F$ T_SIO3_N $end
$var real 1 G$ T_SIO3_P $end
$var real 1 H$ T_SO $end
$var real 1 I$ T_WP $end
$var real 1 J$ T_WP_N $end
$var real 1 K$ T_WP_P $end
$var integer 32 L$ i [31:0] $end
$var integer 32 M$ j [31:0] $end
$var integer 32 N$ tWRSR [31:0] $end
$scope function add_in_erase $end
$var reg 23 O$ Address [22:0] $end
$upscope $end
$scope function write_protect $end
$var reg 23 P$ Address [22:0] $end
$var reg 7 Q$ Block [6:0] $end
$upscope $end
$scope begin memory_initialize $end
$upscope $end
$scope begin page_program_mode $end
$upscope $end
$scope begin read_function $end
$upscope $end
$scope begin rtimeout_cnt $end
$upscope $end
$scope begin stimeout_cnt $end
$upscope $end
$scope task block_erase $end
$var integer 32 R$ End_Add [31:0] $end
$var integer 32 S$ Start_Add [31:0] $end
$var integer 32 T$ i [31:0] $end
$var integer 32 U$ i_tmp [31:0] $end
$upscope $end
$scope task block_erase_32k $end
$var integer 32 V$ End_Add [31:0] $end
$var integer 32 W$ Start_Add [31:0] $end
$var integer 32 X$ i [31:0] $end
$var integer 32 Y$ i_tmp [31:0] $end
$upscope $end
$scope task chip_erase $end
$var reg 23 Z$ Address_Int [22:0] $end
$var integer 32 [$ i [31:0] $end
$upscope $end
$scope task chip_lock $end
$upscope $end
$scope task chip_unlock $end
$upscope $end
$scope task dummy_cycle $end
$var reg 32 \$ Cnum [31:0] $end
$upscope $end
$scope task enter_secured_otp $end
$upscope $end
$scope task er_timer $end
$upscope $end
$scope task erase_spb_register $end
$upscope $end
$scope task exit_secured_otp $end
$upscope $end
$scope task fastread_1xio $end
$var reg 8 ]$ OUT_Buf [7:0] $end
$var integer 32 ^$ Dummy_Count [31:0] $end
$upscope $end
$scope task fastread_2xio $end
$var reg 8 _$ OUT_Buf [7:0] $end
$var integer 32 `$ Dummy_Count [31:0] $end
$upscope $end
$scope task fastread_4xio $end
$var reg 8 a$ OUT_Buf [7:0] $end
$var integer 32 b$ Dummy_Count [31:0] $end
$upscope $end
$scope task load_address $end
$var reg 23 c$ Address [22:0] $end
$upscope $end
$scope task page_program $end
$var reg 23 d$ Address [22:0] $end
$var reg 8 e$ Offset [7:0] $end
$var integer 32 f$ Dummy_Count [31:0] $end
$var integer 32 g$ Tmp_Int [31:0] $end
$var integer 32 h$ i [31:0] $end
$upscope $end
$scope task pg_timer $end
$upscope $end
$scope task program_spb_register $end
$var reg 23 i$ Address_Int [22:0] $end
$var reg 7 j$ Block [6:0] $end
$upscope $end
$scope task read_1xio $end
$var reg 8 k$ OUT_Buf [7:0] $end
$var integer 32 l$ Dummy_Count [31:0] $end
$upscope $end
$scope task read_2xio $end
$var reg 8 m$ OUT_Buf [7:0] $end
$var integer 32 n$ Dummy_Count [31:0] $end
$upscope $end
$scope task read_4xio $end
$var reg 8 o$ OUT_Buf [7:0] $end
$var integer 32 p$ Dummy_Count [31:0] $end
$upscope $end
$scope task read_Secur_Register $end
$var integer 32 q$ Dummy_Count [31:0] $end
$upscope $end
$scope task read_array $end
$var reg 23 r$ Address [22:0] $end
$var reg 8 s$ OUT_Buf [7:0] $end
$upscope $end
$scope task read_cr $end
$var integer 32 t$ Dummy_Count [31:0] $end
$upscope $end
$scope task read_dpb_register $end
$var reg 7 u$ Block [6:0] $end
$var reg 8 v$ DPB_Out [7:0] $end
$var integer 32 w$ Dummy_Count [31:0] $end
$upscope $end
$scope task read_electronic_id $end
$var reg 8 x$ Dummy_ID [7:0] $end
$var integer 32 y$ Dummy_Count [31:0] $end
$upscope $end
$scope task read_electronic_manufacturer_device_id $end
$var reg 16 z$ Dummy_ID [15:0] $end
$var integer 32 {$ Dummy_Count [31:0] $end
$upscope $end
$scope task read_id $end
$var reg 24 |$ Dummy_ID [23:0] $end
$var integer 32 }$ Dummy_Count [31:0] $end
$upscope $end
$scope task read_spb_register $end
$var reg 7 ~$ Block [6:0] $end
$var reg 8 !% SPB_Out [7:0] $end
$var integer 32 "% Dummy_Count [31:0] $end
$upscope $end
$scope task read_status $end
$var reg 8 #% Status_Reg_Int [7:0] $end
$var integer 32 $% Dummy_Count [31:0] $end
$upscope $end
$scope task reset_sm $end
$upscope $end
$scope task resume_write $end
$upscope $end
$scope task sector_erase_4k $end
$var integer 32 %% End_Add [31:0] $end
$var integer 32 &% Start_Add [31:0] $end
$var integer 32 '% i [31:0] $end
$var integer 32 (% i_tmp [31:0] $end
$upscope $end
$scope task suspend_write $end
$upscope $end
$scope task update_array $end
$var reg 23 )% Address [22:0] $end
$var integer 32 *% Dummy_Count [31:0] $end
$var integer 32 +% i [31:0] $end
$var integer 32 ,% i_tmp [31:0] $end
$var integer 32 -% program_time [31:0] $end
$upscope $end
$scope task write_disable $end
$upscope $end
$scope task write_dpb_register $end
$var reg 23 .% Address_Int [22:0] $end
$var reg 7 /% Block [6:0] $end
$var reg 8 0% DPB_Reg_Up [7:0] $end
$upscope $end
$scope task write_enable $end
$upscope $end
$scope task write_protection_select $end
$upscope $end
$scope task write_secur_register $end
$upscope $end
$scope task write_status $end
$var reg 8 1% CR_Up [7:0] $end
$var reg 8 2% Status_Reg_Up [7:0] $end
$upscope $end
$upscope $end
$scope module spi_flash $end
$var wire 1 - clk $end
$var wire 1 3% cmd_fire $end
$var wire 40 4% cmd_in [39:0] $end
$var wire 1 / cmd_vld $end
$var wire 1 0 rst_n $end
$var wire 1 & sclk $end
$var wire 1 " si $end
$var wire 1 5% si_y $end
$var wire 1 # sio3 $end
$var wire 1 6% sio3_y $end
$var wire 1 $ so $end
$var wire 1 7% so_y $end
$var wire 1 % wp $end
$var wire 1 8% wp_y $end
$var wire 1 ( cmd_rdy $end
$var parameter 32 9% ADDR_WD $end
$var parameter 4 :% BURST $end
$var parameter 32 ;% BURST_CS $end
$var parameter 4 <% CMD $end
$var parameter 32 =% CMD_CS $end
$var parameter 32 >% CMD_WD $end
$var parameter 32 ?% CNT_WD $end
$var parameter 32 @% DATA_WD $end
$var parameter 4 A% IDLE $end
$var parameter 4 B% PP $end
$var parameter 4 C% PP4 $end
$var parameter 32 D% PP4_CS $end
$var parameter 32 E% PP_CS $end
$var parameter 4 F% RDIF $end
$var parameter 32 G% RDIF_CS $end
$var parameter 4 H% READ $end
$var parameter 4 I% READ2 $end
$var parameter 32 J% READ2_CS $end
$var parameter 4 K% READ4 $end
$var parameter 32 L% READ4_CS $end
$var parameter 32 M% READ_CS $end
$var parameter 4 N% SE $end
$var parameter 32 O% SE_CS $end
$var parameter 32 P% STA_WD $end
$var parameter 32 Q% TOL_WD $end
$var parameter 4 R% WRSR $end
$var parameter 32 S% WRSR_CS $end
$var reg 1 T% burst_done $end
$var reg 1 U% cmd_done $end
$var reg 40 V% cmd_in_r [39:0] $end
$var reg 12 W% cnt_r [11:0] $end
$var reg 1 ' cs_n $end
$var reg 4 X% cur_state [3:0] $end
$var reg 1 Y% io_en $end
$var reg 4 Z% next_state [3:0] $end
$var reg 1 [% pp4_done $end
$var reg 1 \% pp_done $end
$var reg 1 ]% rdif_done $end
$var reg 1 ^% read2_done $end
$var reg 1 _% read4_done $end
$var reg 1 `% read_done $end
$var reg 1 a% se_done $end
$var reg 1 b% si_d $end
$var reg 1 c% si_en $end
$var reg 1 d% sio3_d $end
$var reg 1 e% so_d $end
$var reg 1 f% so_en $end
$var reg 1 g% wp_d $end
$var reg 1 h% wrsr_done $end
$upscope $end
$upscope $end
$enddefinitions $end
$comment Show the parameter values. $end
$dumpall
b11000 S%
b10 R%
b101000 Q%
b100 P%
b100000 O%
b1111 N%
b110000 M%
b110000 L%
b1101 K%
b101000 J%
b101 I%
b111 H%
b100000 G%
b11 F%
b100000100000 E%
b1000001110 D%
b100 C%
b110 B%
b0 A%
b1000 @%
b1100 ?%
b1000 >%
b1000 =%
b1 <%
b10000 ;%
b1100 :%
b11000 9%
b11110100001001000000 2#
b1111101000 1#
b10011100010000 0#
b10100 /#
b10011000100101101000000000 .#
b11000011010100000000 -#
r7.5 ,#
r7.5 +#
r12.5 *#
b100 )#
b1100100 (#
b110010 '#
b1111 &#
b1010 %#
b100 $#
b1011111010111100001000000 ##
r7.5 "#
b10100 !#
b11000011010100000 ~"
b11000011010100000 }"
b100111000100000 |"
b100111000100000 {"
b101101110001101100000000 z"
r7.5 y"
r7.5 x"
r12.5 w"
b100111000100000 v"
b11000011010100000 u"
b1010000100100010000 t"
b11111010000 s"
b1010 r"
b101 q"
b1010 p"
b101 o"
b100111000100000 n"
b11000011010100000 m"
b110000110101000000 l"
b10 k"
b10011100010000 j"
b1001 i"
b1 h"
b110 g"
r3.38 f"
b1001 e"
b100 d"
b100 c"
b101 b"
b101 a"
b11 `"
r3.38 _"
b100111000100000 ^"
b10011100010000 ]"
b1000010110000011101100000000 \"
b1110111001101011001010000000 ["
r7.5 Z"
b10000101 Y"
b10000101 X"
b1010000 W"
b10000101 V"
b110010 U"
b10000101 T"
b10000101 S"
b1010000 R"
b10000101 Q"
b1 P"
b11100011 O"
b101111 N"
b110 M"
b11100001 L"
b100 K"
b1101000 J"
b11111111111111111111111 I"
b1111111111 H"
b1010 G"
b1110101 F"
b10110000 E"
b1111111 D"
b1011010 C"
b100000 B"
b11000000 A"
b1110111 @"
b1100110 ?"
b10011001 >"
b1111010 ="
b110000 <"
b10101011 ;"
b10010000 :"
b11101011 9"
b10111011 8"
b11 7"
b101 6"
b11100010 5"
b101011 4"
b10101011 3"
b10011111 2"
b11100000 1"
b10101 0"
b1101011 /"
b10 ."
b0 -"
b100000 ,"
b10111 +"
b1101110011011110110111001100101 *"
b1101110011011110110111001100101 )"
b1101110011011110110111001100101 ("
b11000010 '"
b10110 &"
b10011000 %"
b1111110 $"
b111000 #"
b1011 ""
b1100001101010000000 !"
b11000001 ~
b11100100 }
b111110100 |
b101011110000 {
b1001110001000 z
b10110001 y
b111011 x
b10111001 w
b110010 v
b11000111 u
b1100000 t
b100000000 s
b10000000 r
b110 q
b10000 p
b11 o
b1010010 n
b11011000 m
b110 l
b1001 k
b10110 j
b101000 ,
b1000 +
b1000 *
b11000 )
$end
#0
$dumpvars
0h%
0g%
0f%
0e%
0d%
1c%
0b%
0a%
0`%
0_%
0^%
0]%
0\%
0[%
b0x Z%
0Y%
b0 X%
b0 W%
b0 V%
0U%
0T%
z8%
z7%
z6%
05%
bx 4%
x3%
bx 2%
bx 1%
bx 0%
bx /%
bx .%
bx -%
bx ,%
bx +%
bx *%
bx )%
bx (%
bx '%
bx &%
bx %%
bx $%
bx #%
bx "%
bx !%
bx ~$
bx }$
bx |$
bx {$
bx z$
bx y$
bx x$
bx w$
bx v$
bx u$
bx t$
bx s$
bx r$
bx q$
bx p$
bx o$
bx n$
bx m$
bx l$
bx k$
bx j$
bx i$
bx h$
bx g$
bx f$
bx e$
bx d$
bx c$
bx b$
bx a$
bx `$
bx _$
bx ^$
bx ]$
bx \$
bx [$
bx Z$
bx Y$
bx X$
bx W$
bx V$
bx U$
bx T$
bx S$
bx R$
bx Q$
bx P$
bx O$
bx N$
b0 M$
b0 L$
r0 K$
r0 J$
r0 I$
r0 H$
r0 G$
r0 F$
r0 E$
r0 D$
r0 C$
r0 B$
r0 A$
r0 @$
r0 ?$
r0 >$
b0 =$
b0 <$
b1000 ;$
b0 :$
b0 9$
b10 8$
07$
06$
05$
04$
03$
02$
01$
00$
0/$
0.$
0-$
0,$
0+$
0*$
1)$
b0 ($
0'$
b0 &$
0%$
bx $$
b0 #$
b0 "$
b0 !$
b0 ~#
0}#
0|#
0{#
bx z#
0y#
0x#
1w#
1v#
0u#
0t#
1s#
1r#
1q#
1p#
1o#
1n#
0m#
0l#
1k#
0j#
0i#
0h#
0g#
0f#
0e#
0d#
0c#
0b#
0a#
0`#
0_#
0^#
0]#
0\#
0[#
0Z#
0Y#
0X#
0W#
0V#
0U#
0T#
0S#
1R#
0Q#
0P#
0O#
0N#
0M#
0L#
0K#
bx J#
0I#
0H#
0G#
0F#
0E#
0D#
0C#
b1111111111111111 B#
b1111111111111111 A#
b111111111111111111111111111111111111111111111111111111111111111111111111111111111111111111111111111111111111111111111111111111 @#
0?#
b0 >#
b0 =#
0<#
0;#
bx :#
bx 9#
bx 8#
bx 7#
06#
05#
04#
b0 3#
1i
0h
1g
0f
0e
1d
0c
0b
0a
0`
z_
1^
0]
0\
0[
0Z
0Y
0X
0W
0V
b1111111111111111 U
b1111111111111111 T
b111111111111111111111111111111111111111111111111111111111111111111111111111111111111111111111111111111111111111111111111111111 S
0R
0Q
0P
0O
0N
0M
1L
0K
0J
1I
0H
0G
0F
0E
0D
0C
0B
1A
1@
1?
1>
1=
1<
1;
1:
19
18
17
16
15
14
13
12
11
00
x/
bx .
0-
1(
1'
0&
z%
z$
z#
0"
x!
$end
#30
10
#62
r6.2 D$
x5%
x"
xb%
b0 Z%
x(
b0x X%
bx V%
1-
#100
xv#
xr#
xp#
xn#
xw#
xs#
xq#
xo#
#124
0-
#186
b0x Z%
1(
b0 X%
b1 W%
1-
#248
0-
#310
b0 Z%
b0 W%
x(
b0x X%
1-
#372
0-
#434
b0x Z%
1(
b0 X%
b1 W%
1-
#496
0-
#558
b0 Z%
b0 W%
x(
b0x X%
1-
#620
0-
#682
b0x Z%
1(
b0 X%
b1 W%
1-
#744
0-
#806
b0 Z%
b0 W%
x(
b0x X%
1-
#868
0-
#930
b0x Z%
1(
b0 X%
b1 W%
1-
#992
0-
#1054
b0 Z%
b0 W%
x(
b0x X%
1-
#1116
0-
#1178
b0x Z%
1(
b0 X%
b1 W%
1-
#1240
0-
#1302
b0 Z%
b0 W%
x(
b0x X%
1-
#1364
0-
#1426
b0x Z%
1(
b0 X%
b1 W%
1-
#1488
0-
#1550
b0 Z%
b0 W%
x(
b0x X%
1-
#1612
0-
#1674
b0x Z%
1(
b0 X%
b1 W%
1-
#1736
0-
#1798
b0 Z%
b0 W%
x(
b0x X%
1-
#1860
0-
#1922
b0x Z%
1(
b0 X%
b1 W%
1-
#1984
0-
#2046
b0 Z%
b0 W%
x(
b0x X%
1-
#2108
0-
#2170
b0x Z%
1(
b0 X%
b1 W%
1-
#2232
0-
#2294
b0 Z%
b0 W%
x(
b0x X%
1-
#2356
0-
#2418
b0x Z%
1(
b0 X%
b1 W%
1-
#2480
0-
#2542
b0 Z%
b0 W%
x(
b0x X%
1-
#2604
0-
#2666
b0x Z%
1(
b0 X%
b1 W%
1-
#2728
0-
#2790
b0 Z%
b0 W%
x(
b0x X%
1-
#2852
0-
#2914
b0x Z%
1(
b0 X%
b1 W%
1-
#2976
0-
#3038
b0 Z%
b0 W%
x(
b0x X%
1-
#3100
0-
#3162
b0x Z%
1(
b0 X%
b1 W%
1-
#3224
0-
#3286
b0 Z%
b0 W%
x(
b0x X%
1-
#3348
0-
#3410
b0x Z%
1(
b0 X%
b1 W%
1-
#3472
0-
#3534
b0 Z%
b0 W%
x(
b0x X%
1-
#3596
0-
#3658
b0x Z%
1(
b0 X%
b1 W%
1-
#3720
0-
#3782
b0 Z%
b0 W%
x(
b0x X%
1-
#3844
0-
#3906
b0x Z%
1(
b0 X%
b1 W%
1-
#3968
0-
#4030
b0 Z%
b0 W%
x(
b0x X%
1-
#4092
0-
#4154
b0x Z%
1(
b0 X%
b1 W%
1-
#4216
0-
#4278
b0 Z%
b0 W%
x(
b0x X%
1-
#4340
0-
#4402
b0x Z%
1(
b0 X%
b1 W%
1-
#4464
0-
#4526
b0 Z%
b0 W%
x(
b0x X%
1-
#4588
0-
#4650
b0x Z%
1(
b0 X%
b1 W%
1-
#4712
0-
#4774
b0 Z%
b0 W%
x(
b0x X%
1-
#4836
0-
#4898
b0x Z%
1(
b0 X%
b1 W%
1-
#4960
0-
#5022
b0 Z%
b0 W%
x(
b0x X%
1-
#5084
0-
#5146
b0x Z%
1(
b0 X%
b1 W%
1-
#5208
0-
#5270
b0 Z%
b0 W%
x(
b0x X%
1-
#5332
0-
#5394
b0x Z%
1(
b0 X%
b1 W%
1-
#5456
0-
#5518
b0 Z%
b0 W%
x(
b0x X%
1-
#5580
0-
#5642
b0x Z%
1(
b0 X%
b1 W%
1-
#5704
0-
#5766
b0 Z%
b0 W%
x(
b0x X%
1-
#5828
0-
#5890
b0x Z%
1(
b0 X%
b1 W%
1-
#5952
0-
#6014
b0 Z%
b0 W%
x(
b0x X%
1-
#6076
0-
#6138
b0x Z%
1(
b0 X%
b1 W%
1-
#6200
0-
#6262
b0 Z%
b0 W%
x(
b0x X%
1-
#6324
0-
#6386
b0x Z%
1(
b0 X%
b1 W%
1-
#6448
0-
#6510
b0 Z%
b0 W%
x(
b0x X%
1-
#6572
0-
#6634
b0x Z%
1(
b0 X%
b1 W%
1-
#6696
0-
#6758
b0 Z%
b0 W%
x(
b0x X%
1-
#6820
0-
#6882
b0x Z%
1(
b0 X%
b1 W%
1-
#6944
0-
#7006
b0 Z%
b0 W%
x(
b0x X%
1-
#7068
0-
#7130
b0x Z%
1(
b0 X%
b1 W%
1-
#7192
0-
#7254
b0 Z%
b0 W%
x(
b0x X%
1-
